{
  "name": "fb_info",
  "base": "PersistedModel",
  "strict": false,
  "idInjection": false,
  "options": {
    "validateUpsert": true
  },
  "properties": {
    "email": {
      "type": "string",
      "required": true,
      "index": true,
      "id": true
    },
    "mobile_code": {
      "type": "string",
      "required": false
    },
    "mobile_num": {
      "type": "string",
      "required": false
    },
    "password": {
      "type": "string",
      "required": false
    },
    "first_name": {
      "type": "string",
      "required": false
    },
    "last_name": {
      "type": "string",
      "required": false
    },
    "gender": {
      "type": "number",
      "required": false
    },
    "company": {
      "type": "string",
      "required": false
    },
    "college": {
      "type": "string",
      "required": false
    },
    "high_school": {
      "type": "string",
      "required": false
    },
    "city": {
      "type": "string",
      "required": false
    },
    "town": {
      "type": "string",
      "required": false
    },
    "birthday": {
      "type": "date",
      "required": false
    },
    "reg_date": {
      "type": "date",
      "required": false
    }
  },
  "validations": [],
  "relations": {
    "virtualIdentityInfo": {
      "type": "belongsTo",
      "model": "virtual_identity_info",
      "foreignKey": ""
    }
  },
  "acls": [],
  "methods": {}
}
