{
  "name": "room_info",
  "base": "PersistedModel",
  "strict": false,
  "idInjection": false,
  "options": {
    "validateUpsert": true
  },
  "properties": {
    "name": {
      "type": "string",
      "required": false
    },
    "address": {
      "type": "string",
      "required": false
    }
  },
  "validations": [],
  "relations": {
    "groupInfos": {
      "type": "hasMany",
      "model": "group_info",
      "foreignKey": ""
    }
  },
  "acls": [],
  "methods": {}
}
