{
  "name": "task_info",
  "base": "PersistedModel",
  "idInjection": true,
  "options": {
    "validateUpsert": true
  },
  "properties": {
    "start_time": {
      "type": "date"
    },
    "end_time": {
      "type": "date"
    },
    "device_id": {
      "type": "number"
    },
    "ret_code": {
      "type": "number",
      "default": -999
    },
    "ret_msg": {
      "type": "object"
    }
  },
  "validations": [],
  "relations": {
    "taskDetail": {
      "type": "belongsTo",
      "model": "task_detail",
      "foreignKey": ""
    }
  },
  "acls": [],
  "methods": {}
}
